<svg id="Componente_35_1" data-name="Componente 35 – 1" xmlns="http://www.w3.org/2000/svg" xmlns:xlink="http://www.w3.org/1999/xlink" width="117.869" height="112.362" viewBox="0 0 117.869 112.362">
  <defs>
    <clipPath id="clip-path">
      <rect id="Rectángulo_424" data-name="Rectángulo 424" width="117.869" height="112.362" fill="none"/>
    </clipPath>
  </defs>
  <g id="Grupo_1191" data-name="Grupo 1191" transform="translate(0 0)" clip-path="url(#clip-path)">
    <path id="Trazado_1876" data-name="Trazado 1876" d="M57.4,112.049c-6.006.876-11.859-.214-17.662-1.667a65.248,65.248,0,0,1-20.2-8.349C9.39,95.4,3.365,85.778,1.035,73.485c-2.681-14.135-.1-32.748,7.109-44.7C17.284,13.618,27.4,7.662,43.454,2.252,53.718-1.2,67.618-.231,78.168,2.149c17.5,4.9,27.963,13.137,35.109,28.8,5.322,11.661,5.787,24.01,2.578,36.381-5.765,22.23-19.567,36.121-40.331,42.45a54.5,54.5,0,0,1-15.4,2.261c-.907.013-1.815,0-2.722,0" transform="translate(0.001 -0.002)" fill="#b51a17"/>
    <path id="Trazado_1877" data-name="Trazado 1877" d="M63.52,12.051A48.633,48.633,0,0,0,44.71,8.478a48.669,48.669,0,0,0-18.82,3.573A33.938,33.938,0,0,0,12.256,21.8,20.861,20.861,0,0,0,7.242,35.239a20.262,20.262,0,0,0,3.783,11.746,30.6,30.6,0,0,0,10.352,9.2,27.2,27.2,0,0,1-1.09,3.181c-.418,1-.8,1.827-1.13,2.468a17.7,17.7,0,0,1-1.36,2.132c-.571.779-1,1.331-1.294,1.648s-.776.854-1.444,1.592-1.1,1.215-1.3,1.441c-.053.057-.17.185-.336.374s-.264.317-.289.358-.113.166-.251.374-.2.349-.192.4a1.083,1.083,0,0,1-.082.421.559.559,0,0,0,.019.5v.041a2.186,2.186,0,0,0,.675,1.152,1.672,1.672,0,0,0,1.124.436h.21a31.654,31.654,0,0,0,4.769-.92A45.741,45.741,0,0,0,38.643,61.667,57.988,57.988,0,0,0,44.71,62,48.519,48.519,0,0,0,63.52,58.42a33.8,33.8,0,0,0,13.633-9.74,20.5,20.5,0,0,0,0-26.883A33.872,33.872,0,0,0,63.52,12.051m8.93,12.525a15.81,15.81,0,0,1,4.367,10.663A15.81,15.81,0,0,1,72.45,45.9a29.971,29.971,0,0,1-11.793,7.84,43.341,43.341,0,0,1-15.947,2.9,47.22,47.22,0,0,1-5.435-.333l-2.386-.248-1.8,1.582a41.165,41.165,0,0,1-11.5,7.156,30,30,0,0,0,2.926-7.193l1.13-4.013-3.636-2.091a25.511,25.511,0,0,1-8.427-7.338,15.267,15.267,0,0,1-2.992-8.93A15.81,15.81,0,0,1,16.96,24.576a30.063,30.063,0,0,1,11.793-7.84,43.432,43.432,0,0,1,15.957-2.9,43.406,43.406,0,0,1,15.947,2.9,29.971,29.971,0,0,1,11.793,7.84" transform="translate(15.497 18.141)" fill="#fff"/>
  </g>
</svg>
