<svg id="Componente_36_1" data-name="Componente 36 – 1" xmlns="http://www.w3.org/2000/svg" xmlns:xlink="http://www.w3.org/1999/xlink" width="117.075" height="111.605" viewBox="0 0 117.075 111.605">
  <defs>
    <clipPath id="clip-path">
      <rect id="Rectángulo_426" data-name="Rectángulo 426" width="117.075" height="111.605" fill="none"/>
    </clipPath>
  </defs>
  <g id="Grupo_1195" data-name="Grupo 1195" clip-path="url(#clip-path)">
    <path id="Trazado_1884" data-name="Trazado 1884" d="M57.01,111.294c-5.969.87-11.777-.214-17.542-1.655A64.854,64.854,0,0,1,19.4,101.347C9.326,94.763,3.341,85.2,1.027,72.991c-2.663-14.041-.1-32.529,7.061-44.4C17.166,13.526,27.22,7.611,43.161,2.239c10.2-3.435,24-2.468,34.482-.1C95.018,7,105.414,15.184,112.513,30.745c5.287,11.583,5.749,23.85,2.562,36.136-5.727,22.082-19.439,35.876-40.061,42.162a54,54,0,0,1-15.3,2.248c-.9.013-1.8,0-2.7,0" transform="translate(-0.001 0)" fill="#b51a17"/>
    <path id="Trazado_1885" data-name="Trazado 1885" d="M71.826,8.452a3.664,3.664,0,0,0-1.347.392q-9.212,4.069-18.418,8.132l-7.35,3.247L34.193,24.867l-7.9,3.491Q17.358,32.3,8.424,36.249a9.827,9.827,0,0,0-1.268.609A2.238,2.238,0,0,0,8.911,40.94a5.652,5.652,0,0,0,.939-.355Q22.74,34.891,35.618,29.206q5.308-2.345,10.613-4.688L72,13.14a4.8,4.8,0,0,0,1.482-.835,2.2,2.2,0,0,0,.54-2.572,2.142,2.142,0,0,0-2.195-1.281" transform="translate(12.964 18.08)" fill="#fff"/>
    <path id="Trazado_1886" data-name="Trazado 1886" d="M54.963,8.593a2.771,2.771,0,0,0-1,.7q-6.32,6.024-12.635,12.041-2.52,2.407-5.043,4.807l-7.215,6.876Q26.364,35.6,23.653,38.18c-4.085,3.9-4.791,4.383-8.876,8.28a7.226,7.226,0,0,0-.851.876,2.3,2.3,0,0,0,3.039,3.24,4.353,4.353,0,0,0,.666-.562c5.893-5.617,8.405-7.828,14.3-13.442Q35.567,33.1,39.2,29.633q8.84-8.421,17.677-16.848a3.645,3.645,0,0,0,.948-1.133,2.2,2.2,0,0,0-.512-2.462,2.14,2.14,0,0,0-2.355-.6" transform="translate(29.012 18.098)" fill="#fff"/>
    <path id="Trazado_1887" data-name="Trazado 1887" d="M32.062,29.366c-.283-.327-22.9-11.79-23.294-11.9a2.3,2.3,0,0,0-1.881,4.025c.232.173,22.877,11.652,23.4,11.668a2.188,2.188,0,0,0,2.094-1.388,2.138,2.138,0,0,0-.317-2.408" transform="translate(12.963 37.258)" fill="#fff"/>
    <path id="Trazado_1888" data-name="Trazado 1888" d="M24.5,47.635c-.317-.292-11.027-23.279-11.121-23.671a2.3,2.3,0,0,1,4.085-1.749c.163.239,10.889,23.247,10.889,23.768a2.2,2.2,0,0,1-1.457,2.05,2.137,2.137,0,0,1-2.4-.4" transform="translate(28.542 45.636)" fill="#fff"/>
    <path id="Trazado_1889" data-name="Trazado 1889" d="M47.4,9.125a3.641,3.641,0,0,0-.763,1.174q-4.333,9.09-8.666,18.176l-3.457,7.253-4.945,10.38Q27.708,50,25.851,53.9q-4.2,8.817-8.405,17.633a10.157,10.157,0,0,0-.562,1.29,2.238,2.238,0,0,0,3.994,1.95,5.431,5.431,0,0,0,.477-.882Q27.416,61.18,33.478,48.467,35.969,43.234,38.467,38q6.061-12.716,12.12-25.429a4.668,4.668,0,0,0,.578-1.6,2.194,2.194,0,0,0-1.265-2.3,2.149,2.149,0,0,0-2.5.462" transform="translate(35.916 18.079)" fill="#fff"/>
  </g>
</svg>
